{
	"providers": {
		"awscloudformation": {
			"AuthRoleName": "frontend-20190120165916-authRole",
			"UnauthRoleArn": "arn:aws:iam::521693868810:role/frontend-20190120165916-unauthRole",
			"AuthRoleArn": "arn:aws:iam::521693868810:role/frontend-20190120165916-authRole",
			"Region": "us-east-1",
			"DeploymentBucketName": "frontend-20190120165916-deployment",
			"UnauthRoleName": "frontend-20190120165916-unauthRole",
			"StackName": "frontend-20190120165916",
			"StackId": "arn:aws:cloudformation:us-east-1:521693868810:stack/frontend-20190120165916/9d4d79c0-1ca6-11e9-89e0-0e92b042adf6"
		}
	},
	"hosting": {
		"S3AndCloudFront": {
			"service": "S3AndCloudFront",
			"providerPlugin": "awscloudformation",
			"providerMetadata": {
				"s3TemplateURL": "https://s3.amazonaws.com/frontend-20190120165916-deployment/amplify-cfn-templates/hosting/template.json",
				"logicalId": "hostingS3AndCloudFront"
			},
			"lastPushTimeStamp": "2019-01-20T11:39:30.984Z",
			"output": {
				"S3BucketSecureURL": "https://frontend-20190120170341-hostingbucket.s3.amazonaws.com",
				"WebsiteURL": "http://frontend-20190120170341-hostingbucket.s3-website-us-east-1.amazonaws.com",
				"Region": "us-east-1",
				"HostingBucketName": "frontend-20190120170341-hostingbucket"
			},
			"lastPushDirHash": "fV4te/KnegaT13MEbyxlhkYMAdY="
		}
	}
}